[
    {
        "key": "ctrl+shift+b",
        "command": "-workbench.action.tasks.build"
    },
    {
        "key": "ctrl+m",
        "command": "bookmarks.listFromAllFiles",
        "when": "vim.active && vim.mode == 'Normal'"
    },
    {
        "key": "ctrl+e",
        "command": "cursorLineEnd",
        "when": "vim.active && vim.mode == 'Insert'"
    },
    {
        "key": "ctrl+f",
        "command": "cursorRight",
        "when": "vim.active && vim.mode == 'Insert'"
    },
    {
        "key": "ctrl+b",
        "command": "cursorLeft",
        "when": "vim.active && vim.mode == 'Insert'"
    },
    {
        "key": "ctrl+e",
        "command": "workbench.view.explorer",
        "when": "vim.active && vim.mode == 'Normal"
    },
    {
        "key": "ctrl+shift+e",
        "command": "-workbench.view.explorer"
    },
    {
        "key": "shift+u",
        "command": "extension.goto-previous-buffer",
        "when": "vim.active && vim.mode == 'Normal'"
    },
    {
        "key": "ctrl+j",
        "command": "extension.vim_ctrl+[",
        "when": "editorTextFocus && vim.active && vim.use<C-j> && !inDebugRepl"
    },
    {
        "key": "ctrl+n",
        "command": "editor.action.marker.nextInFiles",
        "when": "editorTextFocus && vim.active"
    },
    {
        "key":"ctrl+o",
        "command":"editor.action.triggerSuggest",
        "when": "editorTextFocus && vim.active && vim.mode=='Insert'"
    },
    {
        "key":"-tt",
        "command":"workbench.action.terminal.focus",
        "when": " vim.active && vim.mode=='Normal'"
    }
]